0.03,46.04
0.04,46.64
0.05,47.4
0.06,47.97
0.07,48.56
0.08,49.12
0.09,49.81
0.1,50.39
0.11,51.1
0.12,51.83
0.13,52.64
0.14,53.5
0.15,54.33
0.16,55.28
0.17,56.29
0.18,57.19
0.19,58.21
0.2,59.4
0.21,60.4
0.22,61.55
0.23,62.71
0.24,63.8
0.25,64.97
0.26,66.14
0.27,67.27
0.28,68.54
0.29,69.74
0.3,70.95
0.31,72.15
0.32,73.41
0.33,74.56
0.34,75.74
0.35,77.03
0.36,78.21
0.37,79.39
0.38,80.65
0.39,82.67
0.4,84.56
0.41,86.15
0.42,87.65
0.43,89.05
0.44,90.37
0.45,91.66
0.46,92.87
0.47,94.1
0.48,95.22
0.49,96.43
0.5,97.4
0.51,98.59
0.52,99.64
0.53,100.67
